Analyse des Communautées d’amphibiens - Maîtrise en biologie
…
NAT: Étangs vernaux sélectionnées dans des milieux protégés depuis au moins 70 ans. Celui-ci représente le contrôle pour mon étude.

Est-ce que la communauté d’amphibiens diffère entre les types de traitements sylvicoles ?

Création de la base de donnée

library(readxl)
df2 <-read_excel("C:/Users/super/Université du Québec en Outaouais/CLAUDIE ÉTANGS VERNAUX - Documents/Stats/Structure_des_communautes/Data_Base_presenceV7.xlsx", sheet = 1)
df2 <- df2[, 1:6]
df2$No_etang <- as.factor(df2$No_etang)
df2$Traitement <- as.factor(df2$Traitement)
mat2 <- df2[, !(names(df2) %in% c("No_etang", "Traitement"))]
mat2

# A tibble: 57 × 4
   ambystoma  LICL  LISY  PSCR
       <dbl> <dbl> <dbl> <dbl>
 1         0     0     1     0
 2         1     0     1     0
 3         1     0     0     0
 4         1     0     0     0
 5         1     0     1     0
 6         1     0     1     1
 7         0     0     1     0
 8         0     0     1     1
 9         0     0     1     1
10         0     0     1     1
# ℹ 47 more rows
…
df2 <-read_excel("C:/Users/super/Université du Québec en Outaouais/CLAUDIE ÉTANGS VERNAUX - Documents/Stats/Structure_des_communautes/Data_Base_presenceV7.xlsx", sheet = 1)
df2$Traitement <- as.factor(df2$Traitement)
df2$Ph_moy <- as.numeric(df2$Ph_moy)
df2$Temp_moy <- as.numeric(df2$Temp_moy)
df2$superficie <- as.numeric(df2$superficie)
df2$volume <- as.numeric(df2$volume)
df2$Ouverture <- as.numeric(df2$Ouverture)
df2[, 2:5] <- lapply(df2[, 2:5], as.numeric)
df2$Debris_in<- as.numeric(factor(df2$Debris_in,levels = c("abscence", "faible", "moyen", "eleve"),ordered = TRUE))
df2$Debris_out<- as.numeric(factor(df2$Debris_out,levels = c("abscence", "faible", "moyen", "eleve"),ordered = TRUE))
#pour débris, voici les codes: 1=abscence, 2=faible, 3=moyen, 4=eleve)
df2$Hydro<- factor(df2$Hydro, levels = c("hum", "sec"))
df2

# A tibble: 57 × 14
   No_etang   ambystoma  LICL  LISY  PSCR Traitement Ph_moy Temp_moy superficie
   <chr>          <dbl> <dbl> <dbl> <dbl> <fct>       <dbl>    <dbl>      <dbl>
 1 1WATCJ6            0     0     1     0 CJ           6.64     15.0    165000 
 2 2WATCJ5            1     0     1     0 CJ           6.58     16.6    434700 
 3 3WATCJ1            1     0     0     0 CJ           6.44     12.0     26600 
 4 4WATCJ2            1     0     0     0 CJ           6.62     17.7    380800 
 5 5WATCJ4            1     0     1     0 CJ           6.38     18.6     72000 
 6 6WATCJ3            1     0     1     1 CJ           6.26     18.5    240000 
 7 17WATPEH10         0     0     1     0 PEH          6.49     22.2     62059.
 8 7WATPEH2           0     0     1     1 PEH          6.33     15.6    267285.
 9 12WATPEH5          0     0     1     1 PEH          6.32     17.5    574453.
10 8WATPEH1           0     0     1     1 PEH          6.49     13.9    133706.
# ℹ 47 more rows
# ℹ 5 more variables: volume <dbl>, Ouverture <dbl>, Debris_in <dbl>,
#   Debris_out <dbl>, Hydro <fct>

#Puisque cette base de donnée est grosse, je vais créer des objets pour faciliter les prochaines étapes.

sp2=df2[, 2:5]
trait2=df2$Traitement

env <- df2[, c("Ph_moy", "Temp_moy", "superficie", "volume","Ouverture", "Debris_in", "Debris_out","Hydro")]
env

# A tibble: 57 × 8
   Ph_moy Temp_moy superficie volume Ouverture Debris_in Debris_out Hydro
    <dbl>    <dbl>      <dbl>  <dbl>     <dbl>     <dbl>      <dbl> <fct>
 1   6.64     15.0    165000   3878.     17.2          2          2 hum  
 2   6.58     16.6    434700   5216.      5.2          1          2 hum  
 3   6.44     12.0     26600    466.     26            1          2 sec  
 4   6.62     17.7    380800  11805.      1.04         2          2 sec  
 5   6.38     18.6     72000   1548       4.68         1          2 hum  
 6   6.26     18.5    240000   5040       8.58         1          2 sec  
 7   6.49     22.2     62059.   993.     51.0          1          1 hum  
 8   6.33     15.6    267285.  8019.     72.8          1          1 hum  
 9   6.32     17.5    574453. 11489.     78.3          1          2 hum  
10   6.49     13.9    133706.  4011.     44.7          1          1 hum  
# ℹ 47 more rows
…
À noter que les ambystomes sont seules dans leur coin, celles-ci pourraient donc être à la source de la variation des populations entre les différents types de traitements puisque ce genre est celui qui diffère le plus des autres espèces d’amphibiens qui sont relativement proches les un des autres.

Exploration des variables environnementales

Ouverture de la cannopée:

Préparation de la base de donnée :

df <-read_excel("C:/Users/super/Université du Québec en Outaouais/CLAUDIE ÉTANGS VERNAUX - Documents/Stats/Structure_des_communautes/Data_Base_presenceV7.xlsx", sheet = 1)
df2 <- df[, c(1, 6, 11)]
df2$Traitement <- as.factor(df2$Traitement)
df2$No_etang <- as.factor(df2$No_etang)
df2

# A tibble: 57 × 3
   No_etang   Traitement Ouverture
   <fct>      <fct>          <dbl>
 1 1WATCJ6    CJ             17.2 
 2 2WATCJ5    CJ              5.2 
 3 3WATCJ1    CJ             26   
 4 4WATCJ2    CJ              1.04
 5 5WATCJ4    CJ              4.68
 6 6WATCJ3    CJ              8.58
 7 17WATPEH10 PEH            51.0 
 8 7WATPEH2   PEH            72.8 
 9 12WATPEH5  PEH            78.3 
10 8WATPEH1   PEH            44.7 
# ℹ 47 more rows
…
Le pourcentage de l’ouverture de la canopée des CJ est similaire à celle dans les références en milieu naturel. L’ouverture de la canopée dans les plantations n’est pas du tout similaire à celle du milieu naturel et ressemble plutôt à celle des traitements CPPTM qui coupe presque la majorité de la canopée. Ceci pourrait expliquer pourquoi les ambystomes ne sont presque pas présentes dans les plantations.

Hydrologie :

Préparation des données :

df3 <-read_excel("C:/Users/super/Université du Québec en Outaouais/CLAUDIE ÉTANGS VERNAUX - Documents/Stats/Structure_des_communautes/Data_Base_presenceV7.xlsx", sheet = 1)
df4 <- df3[, c(1, 6, 14)]
df4$Traitement <- as.factor(df4$Traitement)
df4$No_etang <- as.factor(df4$No_etang)
df4$Hydro <- factor(df4$Hydro, levels = c("sec", "hum"))
df4

# A tibble: 57 × 3
   No_etang   Traitement Hydro
   <fct>      <fct>      <fct>
 1 1WATCJ6    CJ         hum  
 2 2WATCJ5    CJ         hum  
 3 3WATCJ1    CJ         sec  
 4 4WATCJ2    CJ         sec  
 5 5WATCJ4    CJ         hum  
 6 6WATCJ3    CJ         sec  
 7 17WATPEH10 PEH        hum  
 8 7WATPEH2   PEH        hum  
 9 12WATPEH5  PEH        hum  
10 8WATPEH1   PEH        hum  
# ℹ 47 more rows
…
Ici, il n’y a pas assez de données pour obtenir un résultat significatif. Toutefois, en regardant le graphique à barre, une tendance semble claire: Les étangs dans les plantations ne semble presque jamais sécher alors que ceux dans les NAT et CJ semble sécher beaucoup plus souvent. Ainsi, l’hydrologie des étangs dans les plantations ne semblent pas refléter ce qui est observé en nature.

Débris ligneux dans l’étang :

Préparation des données :

df5 <-read_excel("C:/Users/super/Université du Québec en Outaouais/CLAUDIE ÉTANGS VERNAUX - Documents/Stats/Structure_des_communautes/Data_Base_presenceV7.xlsx", sheet = 1)
df6 <- df5[, c(1, 6, 12)]
df6$Traitement <- as.factor(df6$Traitement)
df6$No_etang <- as.factor(df6$No_etang)
df6$Debris_in<- factor(df6$Debris_in,levels = c("abscence","faible","moyen","eleve"),ordered = TRUE)
df6

# A tibble: 57 × 3
   No_etang   Traitement Debris_in
   <fct>      <fct>      <ord>    
 1 1WATCJ6    CJ         faible   
 2 2WATCJ5    CJ         abscence 
 3 3WATCJ1    CJ         abscence 
 4 4WATCJ2    CJ         faible   
 5 5WATCJ4    CJ         abscence 
 6 6WATCJ3    CJ         abscence 
 7 17WATPEH10 PEH        abscence 
 8 7WATPEH2   PEH        abscence 
 9 12WATPEH5  PEH        abscence 
10 8WATPEH1   PEH        abscence 
# ℹ 47 more rows
…
Conclusion :

Ici, le niveau de présence de débris ligneux dans le traitement NAT serait significativement différent de CJ et PEH, tous deux ayant majoritairement un abscence de débris ligneux. Encore une fois, les plantations diffèrent du milieu naturel.

Est-ce certaines espèces sont associés à certains traitements sylvicoles ? Pourquoi ?

Les types de traitements modifie l’habitat des amphibiens, notamment, l’ouverture de la canopée, la présence de débris dans les étant et, probablement (mais sans résultats définitifs), l’hydropériode. La RDA précédente semble avoir révélé que les ambystomes sont des espèces spécifiquement associées à un habitat différent que les autres amphibiens puisqu’elles sont isolée dans un coin près de NAT et CJ. Serait-elles des espèces indicatrices qui expliquerait la séparation significative de la communautée entre NAT/CJ et les autres types de traitements?

1.1 Préparation des données:

df <-read_excel("C:/Users/super/Université du Québec en Outaouais/CLAUDIE ÉTANGS VERNAUX - Documents/Stats/Structure_des_communautes/Data_Base_presenceV7.xlsx", sheet = 1)
sp <- df[, c("ambystoma", "LISY", "LICL", "PSCR")]
sp

# A tibble: 57 × 4
   ambystoma  LISY  LICL  PSCR
       <dbl> <dbl> <dbl> <dbl>
 1         0     1     0     0
 2         1     1     0     0
 3         1     0     0     0
 4         1     0     0     0
 5         1     1     0     0
 6         1     1     0     1
 7         0     1     0     0
 8         0     1     0     1
 9         0     1     0     1
10         0     1     0     1
# ℹ 47 more rows
…
On sait que les traitements affecte l’habitat et on a découvert que les valeurs environnementales suivantes semblent celles qui détermine le plus les communautés d’amphibiens: L’ouverture de la canopée, l’hydropériode et la présence de débris dans les étangs. Mais, spécifiquement pour les ambystomes, qui ont maintenant été définie comme des espèces indicatrices de CJ/NAT, quel valeur environnementales influence le plus leur présence/absence dans l’habitat?

2.2 Préparation des données :

df <-read_excel("C:/Users/super/Université du Québec en Outaouais/CLAUDIE ÉTANGS VERNAUX - Documents/Stats/Structure_des_communautes/Data_Base_presenceV7.xlsx", sheet = 1)
df$Traitement <- as.factor(df$Traitement)
df$Ouverture <- as.numeric(df$Ouverture)
df[, 2:5] <- lapply(df[, 2:5], as.numeric)
df$Debris_in<- as.numeric(factor(df$Debris_in,levels = c("abscence", "faible", "moyen", "eleve"),ordered = TRUE))
#pour débris, voici les codes: 1=abscence, 2=faible, 3=moyen, 4=eleve)
df$Hydro<- factor(df$Hydro, levels = c("hum", "sec"))
df

# A tibble: 57 × 14
   No_etang   ambystoma  LICL  LISY  PSCR Traitement Ph_moy Temp_moy superficie
   <chr>          <dbl> <dbl> <dbl> <dbl> <fct>       <dbl>    <dbl>      <dbl>
 1 1WATCJ6            0     0     1     0 CJ           6.64     15.0    165000 
 2 2WATCJ5            1     0     1     0 CJ           6.58     16.6    434700 
 3 3WATCJ1            1     0     0     0 CJ           6.44     12.0     26600 
 4 4WATCJ2            1     0     0     0 CJ           6.62     17.7    380800 
 5 5WATCJ4            1     0     1     0 CJ           6.38     18.6     72000 
 6 6WATCJ3            1     0     1     1 CJ           6.26     18.5    240000 
 7 17WATPEH10         0     0     1     0 PEH          6.49     22.2     62059.
 8 7WATPEH2           0     0     1     1 PEH          6.33     15.6    267285.
 9 12WATPEH5          0     0     1     1 PEH          6.32     17.5    574453.
10 8WATPEH1           0     0     1     1 PEH          6.49     13.9    133706.
# ℹ 47 more rows
# ℹ 5 more variables: volume <dbl>, Ouverture <dbl>, Debris_in <dbl>,
#   Debris_out <chr>, Hydro <fct>
…
